383 = {

    # Misc
    culture = khasani
    religion = mother_akan
	holding = castle_holding

    # History
}

384 = {

    # Misc
    culture = khasani
    religion = mother_akan
	holding = castle_holding

    # History
}

385 = {

    # Misc
    culture = khasani
    religion = mother_akan
	holding = castle_holding

    # History
}

386 = {

    # Misc
    culture = khasani
    religion = mother_akan

    # History
}

393 = {

    # Misc
    culture = khasani
    religion = mother_akan

    # History
}

395 = {

    # Misc
    culture = khasani
    religion = mother_akan
	holding = castle_holding

    # History
}

396 = {

    # Misc
    culture = khasani
    religion = mother_akan
	holding = castle_holding

    # History
}

398 = {

    # Misc
    culture = khasani
    religion = mother_akan
	holding = castle_holding

    # History
}

400 = {

    # Misc
    culture = khasani
    religion = mother_akan
	holding = castle_holding

    # History
}

401 = {

    # Misc
    culture = khasani
    religion = mother_akan
	holding = castle_holding

    # History
}