180 = {

    # Misc
    culture = damerian
    religion = cult_of_the_dame
	holding = tribal_holding

    # History
}

182 = {

    # Misc
    culture = damerian
    religion = cult_of_the_dame
	holding = tribal_holding

    # History
}

183 = {

    # Misc
    culture = damerian
    religion = cult_of_the_dame
	holding = tribal_holding

    # History
}

184 = {

    # Misc
    culture = damerian
    religion = cult_of_the_dame
	holding = tribal_holding

    # History
}

187 = {

    # Misc
    culture = damerian
    religion = cult_of_the_dame
	holding = tribal_holding

    # History
}