2900 = {

    # Misc
    culture = masnsih
    religion = old_bulwari_sun_cult
	holding = tribal_holding

    # History
}

2901 = {

    # Misc
    culture = masnsih
    religion = old_bulwari_sun_cult
	holding = tribal_holding

    # History
}

2902 = {

    # Misc
    culture = masnsih
    religion = old_bulwari_sun_cult
	holding = tribal_holding

    # History
}

2903 = {

    # Misc
    culture = damerian
    religion = cult_of_the_dame
	holding = tribal_holding

    # History
}

2904 = {

    # Misc
    culture = damerian
    religion = cult_of_the_dame
	holding = tribal_holding

    # History
}

2905 = {

    # Misc
    culture = masnsih
    religion = old_bulwari_sun_cult
	holding = tribal_holding

    # History
}

2906 = {

    # Misc
    culture = damerian
    religion = cult_of_the_dame
	holding = tribal_holding

    # History
}

2907 = {

    # Misc
    culture = masnsih
    religion = old_bulwari_sun_cult
	holding = tribal_holding

    # History
}

2908 = {

    # Misc
    culture = damerian
    religion = cult_of_the_dame
	holding = tribal_holding

    # History
}

2909 = {

    # Misc
    culture = masnsih
    religion = old_bulwari_sun_cult
	holding = tribal_holding

    # History
}

2910 = {

    # Misc
    culture = masnsih
    religion = old_bulwari_sun_cult
	holding = tribal_holding

    # History
}

2916 = {

    # Misc
    culture = masnsih
    religion = old_bulwari_sun_cult
	holding = tribal_holding

    # History
}

2917 = {

    # Misc
    culture = damerian
    religion = cult_of_the_dame
	holding = tribal_holding

    # History
}

2918 = {

    # Misc
    culture = damerian
    religion = cult_of_the_dame
	holding = tribal_holding

    # History
}

2919 = {

    # Misc
    culture = damerian
    religion = cult_of_the_dame
	holding = tribal_holding

    # History
}

2920 = {

    # Misc
    culture = damerian
    religion = cult_of_the_dame
	holding = tribal_holding

    # History
}

2921 = {

    # Misc
    culture = damerian
    religion = cult_of_the_dame
	holding = tribal_holding

    # History
}

2922 = {

    # Misc
    culture = damerian
    religion = cult_of_the_dame
	holding = tribal_holding

    # History
}

4376 = {

    # Misc
    culture = damerian
    religion = cult_of_the_dame
	holding = tribal_holding

    # History
}